…
ggplot2's support for legends is enough to make it worth learning, but in addition its versatility makes it really useful for creating detailed plots.

## Plotting

ggplot2 takes a data frame [(in tidy format)](http://mauriziopaul.github.io/intro-to-R/jekyll/2016/07/18/Lesson-06-data-wrangling#tidy-data-with-tidyr) as an argument, and maps features of the data set onto the graph using _aesthetics_.

### Scatter plots

Let's start off with one of ggplot2's default data set, `diamonds`, that lists diamond prices.

```
library(ggplot2)
> diamonds
# A tibble: 53,940 x 10
   carat       cut color clarity depth table price     x     y     z
   <dbl>     <ord> <ord>   <ord> <dbl> <dbl> <int> <dbl> <dbl> <dbl>
1   0.23     Ideal     E     SI2  61.5    55   326  3.95  3.98  2.43
2   0.21   Premium     E     SI1  59.8    61   326  3.89  3.84  2.31
3   0.23      Good     E     VS1  56.9    65   327  4.05  4.07  2.31
4   0.29   Premium     I     VS2  62.4    58   334  4.20  4.23  2.63
5   0.31      Good     J     SI2  63.3    58   335  4.34  4.35  2.75
6   0.24 Very Good     J    VVS2  62.8    57   336  3.94  3.96  2.48
7   0.24 Very Good     I    VVS1  62.3    57   336  3.95  3.98  2.47
8   0.26 Very Good     H     SI1  61.9    55   337  4.07  4.11  2.53
9   0.22      Fair     E     VS2  65.1    61   337  3.87  3.78  2.49
10  0.23 Very Good     H     VS1  59.4    61   338  4.00  4.05  2.39
# ... with 53,930 more rows
```
…
Only mapping columns in a data frame to a graphical parameter should be _inside_ of `aes`.

### Axes

#### changing axis ranges

ggplot2 has a lot of commands for refining the plot axis.

Let's take a look at some economics data:

```
> economics
# A tibble: 574 x 6
         date   pce    pop psavert uempmed unemploy
       <date> <dbl>  <int>   <dbl>   <dbl>    <int>
1  1967-07-01 507.4 198712    12.5     4.5     2944
2  1967-08-01 510.5 198911    12.5     4.7     2945
3  1967-09-01 516.3 199113    11.7     4.6     2958
4  1967-10-01 512.9 199311    12.5     4.9     3143
5  1967-11-01 518.1 199498    12.5     4.7     3066
6  1967-12-01 525.8 199657    12.1     4.8     3018
7  1968-01-01 531.5 199808    11.7     5.1     2878
8  1968-02-01 534.2 199920    12.2     4.5     3001
9  1968-03-01 544.9 200056    11.6     4.1     2877
10 1968-04-01 544.6 200208    12.2     4.6     2709
# ... with 564 more rows
```
…
