…
If the data frame is being assigned to a variable, all the operations are carried out before assignment--in this case, the final data frame consists of only six rows.

## Manipulating data with dplyr

The dplyr package makes basic data manipulations--filtering, sorting, renaming columns, removing columns--easier than in base R.

### tbl_df / tibble

To start off with, dplyr introduces a new data structure called a "[tibble](https://blog.rstudio.org/2016/03/24/tibble-1-0-0/)" (formerly called a tbl_df). Tibbles are data frames, but with a few extra features, most notably smart printing.

We can turn a data frame into a tibble using the `as_data_frame` function (compare to base R's `as.data.frame`).

```
> as_data_frame(pop.estimates)
# A tibble: 306 x 10
     SEX   AGE CENSUS2010POP ESTIMATESBASE2010 POPESTIMATE2010
   <int> <int>         <int>             <int>           <int>
1      0     0       3944153           3944160         3951330
2      0     1       3978070           3978090         3957888
3      0     2       4096929           4096939         4090862
4      0     3       4119040           4119051         4111920
5      0     4       4063170           4063186         4077551
6      0     5       4056858           4056872         4064653
7      0     6       4066381           4066412         4073013
8      0     7       4030579           4030594         4043046
9      0     8       4046486           4046497         4025604
10     0     9       4148353           4148369         4125415
# ... with 296 more rows, and 5 more variables: POPESTIMATE2011 <int>,
#   POPESTIMATE2012 <int>, POPESTIMATE2013 <int>,
#   POPESTIMATE2014 <int>, POPESTIMATE2015 <int>
```
…
Tibbles can be turned back into regular data frames using the `as.data.frame` function, but you probably won't find that necessary.

### select

The `select` function allows us to select specific columns from the data frame. In `pop.estimates.tidy`, we have some columns that we aren't interested in--specifically "CENSUS2010POP" and "ESTIMATESBASE2010", and we can use `select` to get rid of them.

We can either select the columns we want:

```
> pop.estimates.refined <- pop.estimates.tidy %>%
+     as_data_frame %>%
+     separate(Year, into=c('temp', 'Year2'), sep=-5, convert=TRUE) %>%
+     select(SEX, AGE, Year2, EstPop)
> pop.estimates.refined
# A tibble: 1,836 x 4
     SEX   AGE Year2  EstPop
*  <int> <int> <int>   <int>
1      0     0  2010 3951330
2      0     1  2010 3957888
3      0     2  2010 4090862
4      0     3  2010 4111920
5      0     4  2010 4077551
6      0     5  2010 4064653
7      0     6  2010 4073013
8      0     7  2010 4043046
9      0     8  2010 4025604
10     0     9  2010 4125415
# ... with 1,826 more rows
```
…
Here, "EstPop" doesn't change names, but all the other columns do.

### mutate

The `mutate` function creates a new variable in a data frame. For example:

```
> population.change <- pop.estimates %>%
+     as_data_frame %>%
+     mutate(EstimatedChange = POPESTIMATE2015 - POPESTIMATE2010) %>%
+     select(SEX, AGE, EstimatedChange)
> population.change
# A tibble: 306 x 3
     SEX   AGE EstimatedChange
   <int> <int>           <int>
1      0     0           26708
2      0     1           10676
3      0     2         -124279
4      0     3         -137859
5      0     4          -57516
6      0     5          -46495
7      0     6          -53806
8      0     7          105314
9      0     8          142283
10     0     9            8149
# ... with 296 more rows
```

You can also use `mutate` to assign a single value to a column:

```
> population.change %>%
+     mutate(Country = 'United States')
# A tibble: 306 x 4
     SEX   AGE EstimatedChange       Country
   <int> <int>           <int>         <chr>
1      0     0           26708 United States
2      0     1           10676 United States
3      0     2         -124279 United States
4      0     3         -137859 United States
5      0     4          -57516 United States
6      0     5          -46495 United States
7      0     6          -53806 United States
8      0     7          105314 United States
9      0     8          142283 United States
10     0     9            8149 United States
# ... with 296 more rows
```
…
`summarize` collapses data into unique values of its groups, while `mutate` keeps all rows, but still performs operations over each group.

The `n()` function returns the number of rows. Since this census data has a number for each age, it's not very useful for our purposes, but we can use it for the airport data to find the number of airports per country:

```
> airports <- as_data_frame(read.csv('data/airports.csv',
>                                    stringsAsFactors=FALSE))
> airports %>%
+     group_by(country) %>%
+     summarize(NumAirports = n())
# A tibble: 240 x 2
               country NumAirports
                <fctr>       <int>
1          Afghanistan          21
2              Albania           1
3              Algeria          44
4       American Samoa           3
5               Angola          26
6             Anguilla           1
7           Antarctica          19
8  Antigua and Barbuda           2
9            Argentina         103
10             Armenia           4
# ... with 230 more rows
```
…
`left_join` is the most frequently-used join function. It takes a data frame, A, and joins all rows in B that match A. Unless you tell `left_join` which columns to join by (using the argument `by`), it will join by all columns that have the same names.

Taking the airport data for example: maybe you want to add a column for the currency of the host country, so that travelers know which currency they use. Using data from [here](https://github.com/datasets/country-codes), we can use `left_join` to add a row for currency:

```
> currency <- as_data_frame(read.csv('data/country-codes.csv',
+     stringsAsFactors=FALSE)) %>%
+     select(Country = name, Currency = ISO4217.currency_alphabetic_code)
> airport.currency <- airports %>%
+     select(airport.id, name, Country = country) %>%
+     left_join(currency)
Joining, by = "Country"
> airport.currency
# A tibble: 8,107 x 4
   airport.id                       name          Country Currency
        <int>                      <chr>            <chr>    <chr>
1           1                     Goroka Papua New Guinea      PGK
2           2                     Madang Papua New Guinea      PGK
3           3                Mount Hagen Papua New Guinea      PGK
4           4                     Nadzab Papua New Guinea      PGK
5           5 Port Moresby Jacksons Intl Papua New Guinea      PGK
6           6                 Wewak Intl Papua New Guinea      PGK
7           7                 Narsarsuaq        Greenland      DKK
8           8                       Nuuk        Greenland      DKK
9           9          Sondre Stromfjord        Greenland      DKK
10         10             Thule Air Base        Greenland      DKK
# ... with 8,097 more rows
```
…
